TropicalRepo: 2 Data Set Preparation
…
The taxmap objects.

load("files/trepo/data-prep/rdata/ssu_taxmap.rdata")
print(obj)

<Taxmap>
  50302 taxa: aaab. Bacteria ... cwks. ASV6647
  50302 edges: NA->aaab, NA->aaac ... acih->cwks
  1 data sets:
    asv_counts:
      # A tibble: 47,725 x 313
        taxon_id asv_id ALMR_W01_IB_HS_ ALMR_W01_IB_HS_
        <chr>    <chr>             <dbl>            <dbl>
      1 adve     ASV13                7                1
      2 advf     ASV35                0                0
      3 advg     ASV94                0                2
      #  with 47,722 more rows, and 309 more variables:
      #   ALMR_W01_IB_HS_R3 <dbl>, ALMR_W03_IB_HS_R1 <dbl>,
      #   ALMR_W03_IB_HS_R2 <dbl>, ALMR_W03_IB_HS_R3 <dbl>,
      #   ALMR_W05_IB_HS_R1 <dbl>, ALMR_W05_IB_HS_R2 <dbl>,
      #   ALMR_W05_IB_HS_R3 <dbl>, ALMR_W07_IB_HS_R1 <dbl>,
      #   ALMR_W07_IB_HS_R2 <dbl>, ALMR_W07_IB_HS_R3 <dbl>,
      #   
  0 functions:

load("files/trepo/data-prep/rdata/ssu_merge_taxmap.rdata")
print(obj_merge)

<Taxmap>
  50302 taxa: aaab. Bacteria ... cwks. ASV17688
  50302 edges: NA->aaab, NA->aaac ... achv->cwks
  1 data sets:
    asv_counts:
      # A tibble: 47,725 x 113
        taxon_id asv_id ALMR_W01_IB_HS ALMR_W03_IB_HS
        <chr>    <chr>           <dbl>          <dbl>
      1 adve     ASV37              0              1
      2 advf     ASV45              0              0
      3 advg     ASV79              0              0
      #  with 47,722 more rows, and 109 more variables:
      #   ALMR_W05_IB_HS <dbl>, ALMR_W07_IB_HS <dbl>,
      #   ALMR_W09_IB_HS <dbl>, ALMR_W11_IB_HS <dbl>,
      #   ALMR_W13_IB_NS <dbl>, ALMR_W15_IB_NS <dbl>,
      #   ALMR_W17_IB_NS <dbl>, ALMR_W19_IB_NS <dbl>,
      #   ALMR_W21_IB_NS <dbl>, ALMR_W23_IB_NS <dbl>, 
…
